[
    {
        "key": "group_60ad6dba891bd",
        "title": "Gutenberg - GEPark Heading",
        "fields": [
            {
                "key": "field_60ad6dce8387d",
                "label": "Text",
                "name": "text",
                "type": "text",
                "instructions": "",
                "required": 1,
                "conditional_logic": 0,
                "wrapper": {
                    "width": "",
                    "class": "",
                    "id": ""
                },
                "default_value": "",
                "placeholder": "",
                "prepend": "",
                "append": "",
                "maxlength": ""
            },
            {
                "key": "field_60ad6e2e8387f",
                "label": "Type",
                "name": "type",
                "type": "select",
                "instructions": "",
                "required": 1,
                "conditional_logic": 0,
                "wrapper": {
                    "width": "30",
                    "class": "",
                    "id": ""
                },
                "choices": {
                    "heading": "Heading",
                    "subheading": "Sub Heading"
                },
                "default_value": "heading",
                "allow_null": 0,
                "multiple": 0,
                "ui": 1,
                "ajax": 0,
                "return_format": "value",
                "placeholder": ""
            },
            {
                "key": "field_60ae84697172c",
                "label": "Color Scheme",
                "name": "color_scheme",
                "type": "select",
                "instructions": "",
                "required": 1,
                "conditional_logic": 0,
                "wrapper": {
                    "width": "30",
                    "class": "",
                    "id": ""
                },
                "choices": {
                    "default": "Default",
                    "blue": "Blue",
                    "green": "Green",
                    "red": "Red",
                    "orange": "Orange"
                },
                "default_value": "default",
                "allow_null": 0,
                "multiple": 0,
                "ui": 1,
                "ajax": 0,
                "return_format": "value",
                "placeholder": ""
            },
            {
                "key": "field_60ad6ddc8387e",
                "label": "Show Border?",
                "name": "show_border",
                "type": "true_false",
                "instructions": "",
                "required": 0,
                "conditional_logic": 0,
                "wrapper": {
                    "width": "20",
                    "class": "",
                    "id": ""
                },
                "message": "",
                "default_value": 0,
                "ui": 1,
                "ui_on_text": "",
                "ui_off_text": ""
            },
            {
                "key": "field_60ad6f7683880",
                "label": "Use FA Icon?",
                "name": "use_fa_icon",
                "type": "true_false",
                "instructions": "",
                "required": 0,
                "conditional_logic": 0,
                "wrapper": {
                    "width": "20",
                    "class": "",
                    "id": ""
                },
                "message": "",
                "default_value": 0,
                "ui": 1,
                "ui_on_text": "",
                "ui_off_text": ""
            },
            {
                "key": "field_60ad6fa606115",
                "label": "FA Icon",
                "name": "fa_icon",
                "type": "group",
                "instructions": "",
                "required": 0,
                "conditional_logic": [
                    [
                        {
                            "field": "field_60ad6f7683880",
                            "operator": "==",
                            "value": "1"
                        }
                    ]
                ],
                "wrapper": {
                    "width": "",
                    "class": "",
                    "id": ""
                },
                "layout": "block",
                "sub_fields": [
                    {
                        "key": "field_60ad6fa606116",
                        "label": "Position",
                        "name": "position_right",
                        "type": "true_false",
                        "instructions": "",
                        "required": 0,
                        "conditional_logic": 0,
                        "wrapper": {
                            "width": "30",
                            "class": "",
                            "id": ""
                        },
                        "message": "",
                        "default_value": 0,
                        "ui": 1,
                        "ui_on_text": "Right",
                        "ui_off_text": "Left"
                    },
                    {
                        "key": "field_60ad6fa606117",
                        "label": "Icon Class",
                        "name": "icon_class",
                        "type": "font-awesome",
                        "instructions": "",
                        "required": 1,
                        "conditional_logic": 0,
                        "wrapper": {
                            "width": "70",
                            "class": "",
                            "id": ""
                        },
                        "icon_sets": [
                            "fas",
                            "far",
                            "fal",
                            "fad",
                            "fab"
                        ],
                        "custom_icon_set": "",
                        "default_label": "",
                        "default_value": "",
                        "save_format": "class",
                        "allow_null": 0,
                        "show_preview": 1,
                        "enqueue_fa": 1,
                        "fa_live_preview": "",
                        "choices": []
                    }
                ]
            }
        ],
        "location": [
            [
                {
                    "param": "block",
                    "operator": "==",
                    "value": "acf\/gepark-heading"
                }
            ]
        ],
        "menu_order": 0,
        "position": "normal",
        "style": "default",
        "label_placement": "top",
        "instruction_placement": "label",
        "hide_on_screen": "",
        "active": true,
        "description": ""
    }
]